Status: 200
Body: {"content":[{"campaignId":"CAM07277","campaignName":"Camp_[object Promise]","campaignStatus":"active","targetSize":0,"expectedCloseDate":"","targetAudience":"","description":"test campaign data"},{"campaignId":"CAM07276","campaignName":"Camp_[object Promise]","campaignStatus":"active","targetSize":0,"expectedCloseDate":"","targetAudience":"","description":"test campaign data"},{"campaignId":"CAM07275","campaignName":"AaDiscoverYourself","campaignStatus":"pass","targetSize":3,"expectedCloseDate":"","targetAudience":"","description":""},{"campaignId":"CAM07274","campaignName":"AaDiscoverYourself","campaignStatus":"","targetSize":3,"expectedCloseDate":"2025-09-18","targetAudience":"","description":""},{"campaignId":"CAM07273","campaignName":"AaDiscoverYourself","campaignStatus":"","targetSize":3,"expectedCloseDate":"","targetAudience":"","description":""},{"campaignId":"CAM07272","campaignName":"AaDiscoverYourself","campaignStatus":"","targetSize":3,"expectedCloseDate":"2025-09-18","targetAudience":"","description":""},{"campaignId":"CAM07271","campaignName":"AaDiscoverYourself","campaignStatus":"","targetSize":3,"expectedCloseDate":"","targetAudience":"","description":""},{"campaignId":"CAM07270","campaignName":"RFCD","campaignStatus":"open","targetSize":3,"expectedCloseDate":"","targetAudience":"","description":""},{"campaignId":"CAM07269","campaignName":"RFCD","campaignStatus":"","targetSize":3,"expectedCloseDate":"2025-09-18","targetAudience":"","description":""},{"campaignId":"CAM07268","campaignName":"RFCD","campaignStatus":"","targetSize":3,"expectedCloseDate":"","targetAudience":"","description":""},{"campaignId":"CAM07267","campaignName":"RFCD","campaignStatus":"open","targetSize":3,"expectedCloseDate":"","targetAudience":"","description":""},{"campaignId":"CAM07266","campaignName":"RFCD","campaignStatus":"","targetSize":3,"expectedCloseDate":"2025-09-18","targetAudience":"","description":""},{"campaignId":"CAM07265","campaignName":"Camp_[object Promise]","campaignStatus":"active","targetSize":0,"expectedCloseDate":"","targetAudience":"","description":"test campaign data"},{"campaignId":"CAM07264","campaignName":"RFCD","campaignStatus":"","targetSize":3,"expectedCloseDate":"","targetAudience":"","description":""},{"campaignId":"CAM07263","campaignName":"RFCD","campaignStatus":"open","targetSize":3,"expectedCloseDate":"","targetAudience":"","description":""},{"campaignId":"CAM07262","campaignName":"RFCD","campaignStatus":"","targetSize":3,"expectedCloseDate":"2025-09-18","targetAudience":"","description":""},{"campaignId":"CAM07261","campaignName":"RFCD","campaignStatus":"","targetSize":3,"expectedCloseDate":"","targetAudience":"","description":""},{"campaignId":"CAM07260","campaignName":"RFCD","campaignStatus":"open","targetSize":3,"expectedCloseDate":"","targetAudience":"","description":""},{"campaignId":"CAM07259","campaignName":"RFCD","campaignStatus":"","targetSize":3,"expectedCloseDate":"2025-09-18","targetAudience":"","description":""},{"campaignId":"CAM07258","campaignName":"RFCD","campaignStatus":"","targetSize":3,"expectedCloseDate":"","targetAudience":"","description":""}],"pageable":{"sort":{"unsorted":true,"sorted":false,"empty":true},"offset":0,"pageNumber":0,"pageSize":20,"unpaged":false,"paged":true},"totalElements":6662,"totalPages":334,"last":false,"size":20,"number":0,"sort":{"unsorted":true,"sorted":false,"empty":true},"numberOfElements":20,"first":true,"empty":false}
