Status: 200
Body: {"content":[{"campaignId":"CAM07265","campaignName":"Camp_[object Promise]","campaignStatus":"active","targetSize":0,"expectedCloseDate":"","targetAudience":"","description":"test campaign data"},{"campaignId":"CAM07264","campaignName":"RFCD","campaignStatus":"","targetSize":3,"expectedCloseDate":"","targetAudience":"","description":""},{"campaignId":"CAM07263","campaignName":"RFCD","campaignStatus":"open","targetSize":3,"expectedCloseDate":"","targetAudience":"","description":""},{"campaignId":"CAM07262","campaignName":"RFCD","campaignStatus":"","targetSize":3,"expectedCloseDate":"2025-09-18","targetAudience":"","description":""},{"campaignId":"CAM07261","campaignName":"RFCD","campaignStatus":"","targetSize":3,"expectedCloseDate":"","targetAudience":"","description":""},{"campaignId":"CAM07260","campaignName":"RFCD","campaignStatus":"open","targetSize":3,"expectedCloseDate":"","targetAudience":"","description":""},{"campaignId":"CAM07259","campaignName":"RFCD","campaignStatus":"","targetSize":3,"expectedCloseDate":"2025-09-18","targetAudience":"","description":""},{"campaignId":"CAM07258","campaignName":"RFCD","campaignStatus":"","targetSize":3,"expectedCloseDate":"","targetAudience":"","description":""},{"campaignId":"CAM07257","campaignName":"AaDiscoverYourself","campaignStatus":"","targetSize":3,"expectedCloseDate":"2025-09-18","targetAudience":"","description":""},{"campaignId":"CAM07256","campaignName":"AaDiscoverYourself","campaignStatus":"","targetSize":3,"expectedCloseDate":"","targetAudience":"","description":""},{"campaignId":"CAM07255","campaignName":"RFCD","campaignStatus":"open","targetSize":3,"expectedCloseDate":"","targetAudience":"","description":""},{"campaignId":"CAM07254","campaignName":"RFCD","campaignStatus":"","targetSize":3,"expectedCloseDate":"2025-09-18","targetAudience":"","description":""},{"campaignId":"CAM07253","campaignName":"RFCD","campaignStatus":"","targetSize":3,"expectedCloseDate":"","targetAudience":"","description":""},{"campaignId":"CAM07252","campaignName":"RFCD","campaignStatus":"open","targetSize":3,"expectedCloseDate":"","targetAudience":"","description":""},{"campaignId":"CAM07251","campaignName":"RFCD","campaignStatus":"","targetSize":3,"expectedCloseDate":"2025-09-18","targetAudience":"","description":""},{"campaignId":"CAM07250","campaignName":"RFCD","campaignStatus":"","targetSize":3,"expectedCloseDate":"","targetAudience":"","description":""},{"campaignId":"CAM07249","campaignName":"AaDiscoverYourself","campaignStatus":"","targetSize":3,"expectedCloseDate":"","targetAudience":"","description":""},{"campaignId":"CAM07248","campaignName":"AaDiscoverYourself","campaignStatus":"","targetSize":3,"expectedCloseDate":"","targetAudience":"","description":""},{"campaignId":"CAM07247","campaignName":"RFCD","campaignStatus":"open","targetSize":3,"expectedCloseDate":"","targetAudience":"","description":""},{"campaignId":"CAM07246","campaignName":"RFCD","campaignStatus":"","targetSize":3,"expectedCloseDate":"2025-09-18","targetAudience":"","description":""}],"pageable":{"sort":{"unsorted":true,"sorted":false,"empty":true},"offset":0,"pageNumber":0,"pageSize":20,"unpaged":false,"paged":true},"totalElements":6650,"totalPages":333,"last":false,"size":20,"number":0,"sort":{"unsorted":true,"sorted":false,"empty":true},"numberOfElements":20,"first":true,"empty":false}
