Status: 200
Body: {"content":[{"campaignId":"CAM07159","campaignName":"Winter Sale","campaignStatus":"Active","targetSize":1000,"expectedCloseDate":"2026-12-15","targetAudience":"Customers","description":"Updated campaign for winter sale"},{"campaignId":"CAM07158","campaignName":"Summer Sale","campaignStatus":"Cancelled","targetSize":500,"expectedCloseDate":"2026-08-25","targetAudience":"Customers","description":"Updated campaign for summer sale"},{"campaignId":"CAM07157","campaignName":"Summer Sale","campaignStatus":"Active","targetSize":5000,"expectedCloseDate":"2026-08-25","targetAudience":"Customers","description":"Campaign for summer sale"},{"campaignId":"CAM07156","campaignName":"","campaignStatus":"","targetSize":0,"expectedCloseDate":"","targetAudience":"","description":""},{"campaignId":"CAM07155","campaignName":"Product Launch","campaignStatus":"Planned","targetSize":-500,"expectedCloseDate":"2026-08-25","targetAudience":"Customers","description":"Campaign for launch a new product"},{"campaignId":"CAM07154","campaignName":"Product Launch","campaignStatus":"Planned","targetSize":500,"expectedCloseDate":"25/12/2025","targetAudience":"Customers","description":"Campaign for launch a new product"},{"campaignId":"CAM07153","campaignName":"Product Launch","campaignStatus":"Planned","targetSize":0,"expectedCloseDate":"2026-08-25","targetAudience":"Customers","description":"Campaign for launch a new product"},{"campaignId":"CAM07152","campaignName":"","campaignStatus":"Planned","targetSize":500,"expectedCloseDate":"2026-08-25","targetAudience":"Customers","description":"Campaign for launch a new product"},{"campaignId":"CAM07151","campaignName":"Summer Sale","campaignStatus":"","targetSize":500,"expectedCloseDate":"","targetAudience":"","description":""},{"campaignId":"CAM07150","campaignName":"Product Launch","campaignStatus":"Planned","targetSize":500,"expectedCloseDate":"2026-08-25","targetAudience":"Customers","description":"Campaign for launch a new product"},{"campaignId":"CAM07149","campaignName":"Summer Sale","campaignStatus":"Active","targetSize":500,"expectedCloseDate":"2026-08-25","targetAudience":"Customers","description":"Campaign for summer sale"},{"campaignId":"CAM07148","campaignName":"Advanuser","campaignStatus":"","targetSize":3,"expectedCloseDate":"","targetAudience":"","description":""},{"campaignId":"CAM07147","campaignName":"Advanuser","campaignStatus":"","targetSize":3,"expectedCloseDate":"","targetAudience":"","description":""},{"campaignId":"CAM07146","campaignName":"Advanuser","campaignStatus":"","targetSize":3,"expectedCloseDate":"","targetAudience":"","description":""},{"campaignId":"CAM07145","campaignName":"Summer Sale","campaignStatus":"Planned","targetSize":500,"expectedCloseDate":"30-10-2025","targetAudience":"Customers","description":"Campaign for summer sale"},{"campaignId":"CAM07144","campaignName":"Winter Sale","campaignStatus":"Active","targetSize":1000,"expectedCloseDate":"2026-12-15","targetAudience":"Customers","description":"Updated campaign for winter sale"},{"campaignId":"CAM07143","campaignName":"Summer Sale","campaignStatus":"Cancelled","targetSize":500,"expectedCloseDate":"2026-08-25","targetAudience":"Customers","description":"Updated campaign for summer sale"},{"campaignId":"CAM07142","campaignName":"Summer Sale","campaignStatus":"Active","targetSize":5000,"expectedCloseDate":"2026-08-25","targetAudience":"Customers","description":"Campaign for summer sale"},{"campaignId":"CAM07141","campaignName":"","campaignStatus":"","targetSize":0,"expectedCloseDate":"","targetAudience":"","description":""},{"campaignId":"CAM07140","campaignName":"Product Launch","campaignStatus":"Planned","targetSize":-500,"expectedCloseDate":"2026-08-25","targetAudience":"Customers","description":"Campaign for launch a new product"}],"pageable":{"sort":{"unsorted":true,"sorted":false,"empty":true},"offset":0,"pageNumber":0,"pageSize":20,"unpaged":false,"paged":true},"totalElements":6544,"totalPages":328,"last":false,"size":20,"number":0,"sort":{"unsorted":true,"sorted":false,"empty":true},"numberOfElements":20,"first":true,"empty":false}
